…
```r
acs_mobility <- acs %>%
  transmute(
    geo = `GEO.display-label`,
    same_house = HD01_VD03,
    same_county = HD01_VD04,
    same_state = HD01_VD05,
    same_country = HD01_VD06,
    different_country = HD01_VD07
  )
acs_mobility
```

```
## # A tibble: 1,949 x 6
##                         geo same_house same_county same_state same_country
##                       <chr>      <chr>       <chr>      <chr>        <chr>
##  1  Autauga County, Alabama      27553       18655      27643        35870
##  2  Barbour County, Alabama      17263       17363       8165        12667
##  3     Bibb County, Alabama      21489       16112       8804         <NA>
##  4   Butler County, Alabama      19499       11734      20769        23887
##  5 Chambers County, Alabama      20708       14522      21218        18516
##  6  Chilton County, Alabama      23668       20646      15739        33464
##  7     Clay County, Alabama      19201       18836      20596        11350
##  8 Cleburne County, Alabama      21888       11583      20380        16475
##  9   Coffee County, Alabama      24325       18957      11906        31702
## 10  Colbert County, Alabama      22419       18389      17330        20093
## # ... with 1,939 more rows, and 1 more variables: different_country <chr>
```

Now we can add an indicator for whether the median value is in the lowest available interval. This would mean that the median value presented has been bottom-coded.

```r
acs_mobility <- acs_mobility %>%
  mutate(
    same_country_bc = grepl("[0-9]*-", same_country),
    different_country_bc = grepl("[0-9]*-", different_country)
  )
acs_mobility
```

```
## # A tibble: 1,949 x 8
##                         geo same_house same_county same_state same_country
##                       <chr>      <chr>       <chr>      <chr>        <chr>
##  1  Autauga County, Alabama      27553       18655      27643        35870
##  2  Barbour County, Alabama      17263       17363       8165        12667
##  3     Bibb County, Alabama      21489       16112       8804         <NA>
##  4   Butler County, Alabama      19499       11734      20769        23887
##  5 Chambers County, Alabama      20708       14522      21218        18516
##  6  Chilton County, Alabama      23668       20646      15739        33464
##  7     Clay County, Alabama      19201       18836      20596        11350
##  8 Cleburne County, Alabama      21888       11583      20380        16475
##  9   Coffee County, Alabama      24325       18957      11906        31702
## 10  Colbert County, Alabama      22419       18389      17330        20093
## # ... with 1,939 more rows, and 3 more variables: different_country <chr>,
## #   same_country_bc <lgl>, different_country_bc <lgl>
```
…
```r
acs_mobility <- acs_mobility %>%
  transmute(
    geo = geo,
    same_house = if_else(grepl("[0-9]*-", same_house), 2500L, as.integer(same_house)),
    same_county = if_else(grepl("[0-9]*-", same_county), 2500L, as.integer(same_county)),
    same_state = if_else(grepl("[0-9]*-", same_state), 2500L, as.integer(same_state)),
    same_country = if_else(same_country_bc, 2500L, as.integer(same_country)),
    different_country = if_else(different_country_bc, 2500L, as.integer(different_country))
  )
acs_mobility
```

```
## # A tibble: 1,949 x 6
##                         geo same_house same_county same_state same_country
##                       <chr>      <int>       <int>      <int>        <int>
##  1  Autauga County, Alabama      27553       18655      27643        35870
##  2  Barbour County, Alabama      17263       17363       8165        12667
##  3     Bibb County, Alabama      21489       16112       8804           NA
##  4   Butler County, Alabama      19499       11734      20769        23887
##  5 Chambers County, Alabama      20708       14522      21218        18516
##  6  Chilton County, Alabama      23668       20646      15739        33464
##  7     Clay County, Alabama      19201       18836      20596        11350
##  8 Cleburne County, Alabama      21888       11583      20380        16475
##  9   Coffee County, Alabama      24325       18957      11906        31702
## 10  Colbert County, Alabama      22419       18389      17330        20093
## # ... with 1,939 more rows, and 1 more variables: different_country <int>
```

Let's rearrange the data into `tidy` format (one observation per row).

```r
tidy_acs <- acs_mobility %>%
  gather(location_last_year, median_income, -geo, factor_key = TRUE)
tidy_acs
```

```
## # A tibble: 9,745 x 3
##                         geo location_last_year median_income
##                       <chr>             <fctr>         <int>
##  1  Autauga County, Alabama         same_house         27553
##  2  Barbour County, Alabama         same_house         17263
##  3     Bibb County, Alabama         same_house         21489
##  4   Butler County, Alabama         same_house         19499
##  5 Chambers County, Alabama         same_house         20708
##  6  Chilton County, Alabama         same_house         23668
##  7     Clay County, Alabama         same_house         19201
##  8 Cleburne County, Alabama         same_house         21888
##  9   Coffee County, Alabama         same_house         24325
## 10  Colbert County, Alabama         same_house         22419
## # ... with 9,735 more rows
```
…
