…
```r
ssa <- read_xlsx("data/ssa_earnings.xlsx", range = "A7:J159", 
                 col_names = c("state", "gender", "other", "other2", "number.total", "number.wage", "number.self", 
                               "earnings.total", "earnings.wage", "earnings.self"))
ssa
```

```
## # A tibble: 153 x 10
##       state gender other other2 number.total number.wage number.self
##       <chr>  <chr> <lgl>  <lgl>        <dbl>       <dbl>       <dbl>
##  1  Alabama   <NA>    NA     NA      2355477     2215535      255253
##  2     <NA>    Men    NA     NA      1200468     1116458      138895
##  3     <NA>  Women    NA     NA      1155009     1099077      116357
##  4   Alaska   <NA>    NA     NA       400007      375833       47696
##  5     <NA>    Men    NA     NA       223464      209694       27884
##  6     <NA>  Women    NA     NA       176543      166140       19812
##  7  Arizona   <NA>    NA     NA      3189785     2997567      334292
##  8     <NA>    Men    NA     NA      1660088     1551488      185753
##  9     <NA>  Women    NA     NA      1529697     1446079      148539
## 10 Arkansas   <NA>    NA     NA      1468898     1376249      163320
## # ... with 143 more rows, and 3 more variables: earnings.total <dbl>,
## #   earnings.wage <dbl>, earnings.self <dbl>
```
…
