…
```
## # A tibble: 1,640 x 7
##    family_id in_institution state    life_satisfaction children
##        <dbl>          <lgl> <chr>                <ord>    <dbl>
##  1      4893          FALSE    NC   Somewhat satisfied        0
##  2      2967          FALSE    TX   Somewhat satisfied        0
##  3      6095          FALSE    NC   Somewhat satisfied        0
##  4      3738          FALSE    CO   Somewhat satisfied        0
##  5      6741          FALSE    ID       Very satisfied        0
##  6      4839          FALSE    MS Completely satisfied        1
##  7      3828          FALSE    TX   Somewhat satisfied        0
##  8      5640           TRUE    KY Completely satisfied        0
##  9      5210           TRUE    CA       Very satisfied        0
## 10       339          FALSE    IN   Somewhat satisfied        0
## # ... with 1,630 more rows, and 2 more variables: employment_status <chr>,
## #   annual_earnings <dbl>
```
…
