…
```r
library(lubridate)
if("package:dplyr" %in% search()) detach("package:dplyr", unload=TRUE)
library(dplyr)
library(tidyr)
inventory <- raw_inventory %>% select(RegionName, matches("[[:digit:]]")) %>%
  gather(month, age, matches("[[:digit:]]")) %>% 
  mutate(month = ymd(paste0(month, "-01")))
inventory
```

```
## # A tibble: 22,713 x 3
##                   RegionName      month   age
##                        <chr>     <date> <int>
##  1             United States 2012-01-01   120
##  2              New York, NY 2012-01-01   136
##  3               Chicago, IL 2012-01-01   141
##  4     Dallas-Fort Worth, TX 2012-01-01   109
##  5          Philadelphia, PA 2012-01-01   132
##  6               Houston, TX 2012-01-01   112
##  7            Washington, DC 2012-01-01   105
##  8 Miami-Fort Lauderdale, FL 2012-01-01    89
##  9               Atlanta, GA 2012-01-01    98
## 10                Boston, MA 2012-01-01   116
## # ... with 22,703 more rows
```
…
