…
Divide the date column into year and month columns.

```r
library(lubridate)
survey <- survey %>%
  mutate(date = parse_date(yyyymm, format = "%Y%m"),
         year = year(date),
         month = month(date)
  ) %>%
  select(-yyyymm)
survey
```

```
## # A tibble: 235 x 12
##    pexp_r_y13 pexp_r_y23 pexp_r_y33 pjob_mean_y13 pjob_mean_y23
##         <int>      <int>      <int>         <dbl>         <dbl>
##  1        128        153        148          15.3          16.6
##  2        147        143        149          18.9          19.8
##  3        125        141        137          14.4          16.4
##  4        133        134        149          14.2          18.5
##  5        126        129        150          15.8          16.8
##  6        128        139        137          14.4          14.8
##  7        132        142        146          17.0          18.6
##  8        131        143        145          15.8          19.3
##  9        126        135        135          18.1          17.2
## 10        132        134        136          19.4          16.6
## # ... with 225 more rows, and 7 more variables: pjob_mean_y33 <dbl>,
## #   umex_r_y13 <int>, umex_r_y23 <int>, umex_r_y33 <int>, date <date>,
## #   year <dbl>, month <dbl>
```
…
```r
library(forcats)
survey <- survey %>%
  gather(key = "key", value = "value", -year, -month, -date) %>%
  separate(key, into = c("variable", "type", "income")) %>%
  select(-type) %>%
  spread(key = "variable", value = "value") %>%
  mutate(income = fct_recode(as_factor(income), `Bottom 3rd` = "y13", `Middle 3rd` = "y23", `Top 3rd` = "y33"))
survey
```

```
## # A tibble: 705 x 7
##          date  year month     income  pexp  pjob  umex
##        <date> <dbl> <dbl>     <fctr> <dbl> <dbl> <dbl>
##  1 1998-01-01  1998     1 Bottom 3rd   128  15.3    90
##  2 1998-01-01  1998     1 Middle 3rd   153  16.6    94
##  3 1998-01-01  1998     1    Top 3rd   148  15.8    99
##  4 1998-02-01  1998     2 Bottom 3rd   147  18.9   103
##  5 1998-02-01  1998     2 Middle 3rd   143  19.8   103
##  6 1998-02-01  1998     2    Top 3rd   149  14.7   100
##  7 1998-03-01  1998     3 Bottom 3rd   125  14.4    90
##  8 1998-03-01  1998     3 Middle 3rd   141  16.4   106
##  9 1998-03-01  1998     3    Top 3rd   137  17.8   104
## 10 1998-04-01  1998     4 Bottom 3rd   133  14.2   101
## # ... with 695 more rows
```
…
