…
First we'll use `tidyr` to reshape the anscombe dataset to make it easier to work with. We want a column to identify
each point, `id`, a column for the series (`x1` is the `x` value in series `1`), and columns for `x` and `y`. In the
case of the `anscombe` dataset, rows group `x` and `y` vaules, but are not important across series.


```r
library(tidyverse)
tidy_anscombe <- anscombe %>%
  mutate(id = row_number()) %>%
  gather(key = key, value = value, everything(), -id)
tidy_anscombe %>% as.tbl
```

```
## # A tibble: 88 x 3
##       id   key value
##    <int> <chr> <dbl>
##  1     1    x1    10
##  2     2    x1     8
##  3     3    x1    13
##  4     4    x1     9
##  5     5    x1    11
##  6     6    x1    14
##  7     7    x1     6
##  8     8    x1     4
##  9     9    x1    12
## 10    10    x1     7
## # ... with 78 more rows
```

Now we want can split the `key` column into an `x_or_y` column and a `series` column. 

```r
tidy_anscombe <- tidy_anscombe %>%
  separate(key, c("x_or_y", "series"), 1)
tidy_anscombe %>% as.tbl
```

```
## # A tibble: 88 x 4
##       id x_or_y series value
##  * <int>  <chr>  <chr> <dbl>
##  1     1      x      1    10
##  2     2      x      1     8
##  3     3      x      1    13
##  4     4      x      1     9
##  5     5      x      1    11
##  6     6      x      1    14
##  7     7      x      1     6
##  8     8      x      1     4
##  9     9      x      1    12
## 10    10      x      1     7
## # ... with 78 more rows
```

Now we can use `spread()` to create the final form of our table, regrouping the associated x and y values.
We could have done something simpler since we knew there were only 4 series, but the code we used will work
for an arbitrary number of series.

```r
tidy_anscombe <- tidy_anscombe %>%
  spread(x_or_y, value)
tidy_anscombe %>% as.tbl
```

```
## # A tibble: 44 x 4
##       id series     x     y
##  * <int>  <chr> <dbl> <dbl>
##  1     1      1    10  8.04
##  2     1      2    10  9.14
##  3     1      3    10  7.46
##  4     1      4     8  6.58
##  5     2      1     8  6.95
##  6     2      2     8  8.14
##  7     2      3     8  6.77
##  8     2      4     8  5.76
##  9     3      1    13  7.58
## 10     3      2    13  8.74
## # ... with 34 more rows
```
…
