R for Data Analysis and Visualization
…
3.1.1 Importing non-standard Excel files

The first steps in preparing a non-standard Excel file are (1) identify how many rows to skip and (2) provide column names if the column names are not neatly contained in a single row. You may also want to set the range if there is metadata at the end of the table you are importing. range overrides any skip setting, so we wont have to specify the number of rows to skip.

library(readxl)
seats <- read_excel("data/2017 Air Seat Forecast rev 0617.xls", col_names = c(
  "dep_city", 
  "seats2017Q1", "seats2017Q2", "seats2017Q3", "seats2017Q4", "seats2017", 
  "seats2016Q1", "seats2016Q2", "seats2016Q3", "seats2016Q4", "seats2016",
  "seatschangeQ1", "seatschangeQ2", "seatschangeQ3", "seatschangeQ4", "seatschange"
), range = "A5:P78")
seats

## # A tibble: 74 × 16
##     dep_city seats2017Q1 seats2017Q2 seats2017Q3 seats2017Q4 seats2017
##        <chr>       <dbl>       <dbl>       <dbl>       <dbl>     <dbl>
## 1      TOTAL     2987920     3016376     3168233     3050112  12222641
## 2  SCHEDULED     2966915     2996155     3140998     3029794  12133862
## 3   CHARTERS       21005       20221       27235       20318     88779
## 4       <NA>          NA          NA          NA          NA        NA
## 5   US TOTAL     1996549     2108969     2215424     2071513   8392455
## 6  SCHEDULED     1978616     2091981     2200195     2055171   8325963
## 7   CHARTERS       17933       16988       15229       16342     66492
## 8       <NA>          NA          NA          NA          NA        NA
## 9    US WEST     1717254     1837080     1943653     1817441   7315428
## 10 Anchorage       25758       15105       13674       17013     71550
## # ... with 64 more rows, and 10 more variables: seats2016Q1 <dbl>,
## #   seats2016Q2 <dbl>, seats2016Q3 <dbl>, seats2016Q4 <dbl>,
## #   seats2016 <dbl>, seatschangeQ1 <dbl>, seatschangeQ2 <chr>,
## #   seatschangeQ3 <chr>, seatschangeQ4 <dbl>, seatschange <dbl>
…
seats$region <- NA
seats[us_west_range,]$region <- "US West"
seats[us_east_range,]$region <- "US East"
seats[japan_range,]$region <- "Japan"
seats[canada_range,]$region <- "Canada"
seats[other_asia_range,]$region <- "Other Asia"
seats[oceania_range,]$region <- "Oceania"
seats[other_range,]$region <- "Other"

seats <- seats %>%
  filter(!is.na(region))
seats

## # A tibble: 49 × 17
##          dep_city seats2017Q1 seats2017Q2 seats2017Q3 seats2017Q4
##             <chr>       <dbl>       <dbl>       <dbl>       <dbl>
## 1       Anchorage       25758       15105       13674       17013
## 2      Bellingham       10198         318          NA        6519
## 3          Denver       55803       51654       52585       43290
## 4       Las Vegas       70514       74322       75839       75415
## 5     Los Angeles      548935      647498      715338      647703
## 6         Oakland       84571      104810      116015       90703
## 7         Phoenix      113046      115125      125348      108863
## 8        Portland       90207       71068       65997       81673
## 9      Sacramento       37620       38318       38456       38456
## 10 Salt Lake City       26370       23751       22968       28322
## # ... with 39 more rows, and 12 more variables: seats2017 <dbl>,
## #   seats2016Q1 <dbl>, seats2016Q2 <dbl>, seats2016Q3 <dbl>,
## #   seats2016Q4 <dbl>, seats2016 <dbl>, seatschangeQ1 <dbl>,
## #   seatschangeQ2 <chr>, seatschangeQ3 <chr>, seatschangeQ4 <dbl>,
## #   seatschange <dbl>, region <chr>
…
3.3 Bubbles

Bubble charts are scatter plots (geom_point) with points that vary in size corresponding to the value of a given variable. Let’s create a measure of the size of a city’s seats relative to its regional total.

seats <- seats %>%
  group_by(region) %>%
  mutate(proportion_of_region = seats2017/sum(seats2017))
seats

## Source: local data frame [49 x 18]
## Groups: region [7]
## 
##          dep_city seats2017Q1 seats2017Q2 seats2017Q3 seats2017Q4
##             <chr>       <dbl>       <dbl>       <dbl>       <dbl>
## 1       Anchorage       25758       15105       13674       17013
## 2      Bellingham       10198         318          NA        6519
## 3          Denver       55803       51654       52585       43290
## 4       Las Vegas       70514       74322       75839       75415
## 5     Los Angeles      548935      647498      715338      647703
## 6         Oakland       84571      104810      116015       90703
## 7         Phoenix      113046      115125      125348      108863
## 8        Portland       90207       71068       65997       81673
## 9      Sacramento       37620       38318       38456       38456
## 10 Salt Lake City       26370       23751       22968       28322
## # ... with 39 more rows, and 13 more variables: seats2017 <dbl>,
## #   seats2016Q1 <dbl>, seats2016Q2 <dbl>, seats2016Q3 <dbl>,
## #   seats2016Q4 <dbl>, seats2016 <dbl>, seatschangeQ1 <dbl>,
## #   seatschangeQ2 <chr>, seatschangeQ3 <chr>, seatschangeQ4 <dbl>,
## #   seatschange <dbl>, region <chr>, proportion_of_region <dbl>
…
