R for Data Analysis and Visualization
…
uwnd <- ncvar_get(uwnd_nc, "uwnd")
uwnd_time <- nc.get.time.series(uwnd_nc, v = "uwnd", time.dim.name = "time")
uwnd_lon <- ncvar_get(uwnd_nc, "lon")
uwnd_lat <- ncvar_get(uwnd_nc, "lat")
nc_close(uwnd_nc)

uwnd_df <- uwnd %>%
  as.data.frame.table(responseName = "uwnd", stringsAsFactors = FALSE) %>%
  rename(a = Var1, b = Var2, c = Var3) %>%
  cbind.data.frame(expand.grid(uwnd_lon, uwnd_lat, uwnd_time)) %>%
  rename(lon = Var1, lat = Var2, time = Var3) %>%
  dplyr::select(lon, lat, time, uwnd)
uwnd_df %>% as.tibble()

## # A tibble: 2,081,376 x 4
##      lon   lat        time        uwnd
##    <dbl> <dbl> <S3: PCICt>       <dbl>
##  1   0.0    90  2017-01-01 -2.29999971
##  2   2.5    90  2017-01-01 -1.99999964
##  3   5.0    90  2017-01-01 -1.69999957
##  4   7.5    90  2017-01-01 -1.34999967
##  5  10.0    90  2017-01-01 -1.02499962
##  6  12.5    90  2017-01-01 -0.72499961
##  7  15.0    90  2017-01-01 -0.39999962
##  8  17.5    90  2017-01-01 -0.04999962
##  9  20.0    90  2017-01-01  0.27500039
## 10  22.5    90  2017-01-01  0.60000038
## # ... with 2,081,366 more rows
…
vwnd_nc <- nc_open("data/vwnd.sig995.2017.nc")
vwnd <- ncvar_get(vwnd_nc, "vwnd")
vwnd_time <- nc.get.time.series(vwnd_nc, v = "vwnd", time.dim.name = "time")
vwnd_lon <- ncvar_get(vwnd_nc, "lon")
vwnd_lat <- ncvar_get(vwnd_nc, "lat")
nc_close(vwnd_nc)

wind <- vwnd %>%
  as.data.frame.table(responseName = "vwnd", stringsAsFactors = FALSE) %>%
  cbind.data.frame(uwnd_df) %>%
  rename(lon2 = Var1, lat2 = Var2, time2 = Var3) %>%
  select(lon, lat, time, vwnd, uwnd) 
wind %>% as.tibble()

## # A tibble: 2,081,376 x 5
##      lon   lat        time     vwnd        uwnd
##    <dbl> <dbl> <S3: PCICt>    <dbl>       <dbl>
##  1   0.0    90  2017-01-01 7.150002 -2.29999971
##  2   2.5    90  2017-01-01 7.250002 -1.99999964
##  3   5.0    90  2017-01-01 7.350002 -1.69999957
##  4   7.5    90  2017-01-01 7.375001 -1.34999967
##  5  10.0    90  2017-01-01 7.475002 -1.02499962
##  6  12.5    90  2017-01-01 7.475002 -0.72499961
##  7  15.0    90  2017-01-01 7.525002 -0.39999962
##  8  17.5    90  2017-01-01 7.550002 -0.04999962
##  9  20.0    90  2017-01-01 7.550002  0.27500039
## 10  22.5    90  2017-01-01 7.525002  0.60000038
## # ... with 2,081,366 more rows
…
