R for Data Analysis and Visualization
…
## See spec(...) for full column specifications.

series_defn

## # A tibble: 85,277 x 43
##             series_id seasonal stattype_code datays_code sex_code
##                 <chr>    <chr>         <int>       <chr>    <int>
##  1 TUU10100AA01000007        U         10100          01        0
##  2 TUU10100AA01000013        U         10100          01        0
##  3 TUU10100AA01000014        U         10100          01        0
##  4 TUU10100AA01000015        U         10100          01        0
##  5 TUU10100AA01000018        U         10100          01        0
##  6 TUU10100AA01000019        U         10100          01        0
##  7 TUU10100AA01000025        U         10100          01        0
##  8 TUU10100AA01000035        U         10100          01        0
##  9 TUU10100AA01000036        U         10100          01        0
## 10 TUU10100AA01000037        U         10100          01        0
## # ... with 85,267 more rows, and 38 more variables: region_code <chr>,
## #   lfstat_code <chr>, educ_code <chr>, maritlstat_code <chr>,
## #   age_code <chr>, orig_code <chr>, race_code <chr>, mjcow_code <chr>,
## #   nmet_code <int>, where_code <chr>, sjmj_code <int>,
## #   timeday_code <chr>, actcode_code <chr>, industry_code <chr>,
## #   occ_code <chr>, prhhchild_code <chr>, earn_code <chr>,
## #   disability_code <chr>, who_code <chr>, hhnscc03_code <chr>,
## #   schenr_code <int>, prownhhchild_code <chr>, work_code <int>,
## #   elnum_code <chr>, ecage_code <chr>, elfreq_code <int>,
…
