R for Data Analysis and Visualization
…
We will use data on the number of active duty personnel in Hawaii. The first dataset is an Excel file pulled from the State of Hawaii Department of Business, Economic Development, and Tourism (DBEDT) 2015 State of Hawaii Data Book. See the line listed as, “10.03 - Active Duty Personnel, by Service: 1953 to 2015.” The data is originally from the US Defense Manpower Data Center

library(readxl)
if("package:dplyr" %in% search()) detach("package:dplyr", unload=TRUE)
library(dplyr)
library(magrittr)
mil_personnel <- read_excel("data/100315.xls", range = "A5:L38", col_types = "numeric")
mil_personnel <- bind_rows(
  mil_personnel %>% select(1:6) %>% set_colnames(c("Year", "Total", "Army", "Navy", "Marine Corps", "Air Force")),
  mil_personnel %>% select(7:12) %>% set_colnames(c("Year", "Total", "Army", "Navy", "Marine Corps", "Air Force"))
)
mil_personnel

## # A tibble: 66 x 6
##     Year Total  Army  Navy `Marine Corps` `Air Force`
##    <dbl> <dbl> <dbl> <dbl>          <dbl>       <dbl>
##  1    NA    NA    NA    NA             NA          NA
##  2  1953 24785  5872  7657           6040        5216
##  3  1954 23654  7957  6443           4155        5099
##  4  1955 40258 19821  5211           9677        5549
##  5  1956 37470 16531  5237           9490        6212
##  6  1957 40683 17511  5466           9608        8098
##  7  1958 35076 14672  4908           8670        6826
##  8  1959 36310 15438  5309           8470        7093
##  9  1960 35412 15492  5687           7756        6477
## 10  1961 39474 16945  5774           9679        7076
## # ... with 56 more rows

Notice that the Year 2015 was turned into NA. This happened because the value in the corresponding cell was ‘2/ 2015’. Let’s remove the final row of NAs and replace the remaining NA with 2015.

mil_personnel <- mil_personnel %>% filter(!is.na(Total))
mil_personnel[is.na(mil_personnel$Year),]$Year <- 2015
mil_personnel

## # A tibble: 63 x 6
##     Year Total  Army  Navy `Marine Corps` `Air Force`
##    <dbl> <dbl> <dbl> <dbl>          <dbl>       <dbl>
##  1  1953 24785  5872  7657           6040        5216
##  2  1954 23654  7957  6443           4155        5099
##  3  1955 40258 19821  5211           9677        5549
##  4  1956 37470 16531  5237           9490        6212
##  5  1957 40683 17511  5466           9608        8098
##  6  1958 35076 14672  4908           8670        6826
##  7  1959 36310 15438  5309           8470        7093
##  8  1960 35412 15492  5687           7756        6477
##  9  1961 39474 16945  5774           9679        7076
## 10  1962 41657 17645  6664           9903        7445
## # ... with 53 more rows
…
