R for Data Analysis and Visualization
…
    population = N2,
    agi = A00100,
    agi_pc = agi / population,
    total_income = A02650,
    wages = A00200,
    farms = SCHF,
    farm_proportion = farms / households,
    taxes = A10300,
    taxes_pc = taxes / population,
    taxes_agi = taxes / agi,
    taxes_total_income = taxes / total_income
  )
as.tibble(irs)

## # A tibble: 27,729 x 14
##      zip state households population    agi   agi_pc total_income  wages
##    <chr> <chr>      <dbl>      <dbl>  <dbl>    <dbl>        <dbl>  <dbl>
##  1 35004    AL       5110      10390 280757 27.02185       283221 231704
##  2 35005    AL       3260       6450 130927 20.29876       131832 105561
##  3 35006    AL       1230       2640  59415 22.50568        59695  46379
##  4 35007    AL      12170      25760 693284 26.91320       701514 554651
##  5 35010    AL       8160      17020 378765 22.25411       382646 261568
##  6 35014    AL       1610       3150  73119 23.21238        73864  56756
##  7 35016    AL       7010      14310 357800 25.00349       361470 263648
##  8 35019    AL        890       1930  37188 19.26839        37640  29847
##  9 35020    AL       9570      19680 257275 13.07292       259289 217474
## 10 35022    AL       9770      19160 546843 28.54087       552470 434932
## # ... with 27,719 more rows, and 6 more variables: farms <dbl>,
## #   farm_proportion <dbl>, taxes <dbl>, taxes_pc <dbl>, taxes_agi <dbl>,
## #   taxes_total_income <dbl>
…
