R for Data Analysis and Visualization
…
1006 - Rice

1005 - Maize (corn)

0201 - Meat of bovine animals; fresh or chilled

0302 - Fish; fresh or chilled, excluding fish fillets and other fish meat of heading 0304

Next click on â€œDownload CSVâ€.

library(tidyverse)
comtrade <- read_csv("data/comtrade.csv")
comtrade

## # A tibble: 57 x 35
##    Classification  Year Period `Period Desc.` `Aggregate Level`
##             <chr> <int>  <int>          <int>             <int>
##  1             H4  2016   2016           2016                 4
##  2             H4  2016   2016           2016                 4
##  3             H4  2016   2016           2016                 4
##  4             H4  2016   2016           2016                 4
##  5             H4  2016   2016           2016                 4
##  6             H4  2016   2016           2016                 4
##  7             H4  2016   2016           2016                 4
##  8             H4  2016   2016           2016                 4
##  9             H4  2016   2016           2016                 4
## 10             H4  2016   2016           2016                 4
## # ... with 47 more rows, and 30 more variables: `Is Leaf Code` <int>,
## #   `Trade Flow Code` <int>, `Trade Flow` <chr>, `Reporter Code` <int>,
## #   Reporter <chr>, `Reporter ISO` <chr>, `Partner Code` <int>,
## #   Partner <chr>, `Partner ISO` <chr>, `2nd Partner Code` <chr>, `2nd
## #   Partner` <chr>, `2nd Partner ISO` <chr>, `Customs Proc. Code` <chr>,
## #   Customs <chr>, `Mode of Transport Code` <chr>, `Mode of
## #   Transport` <chr>, `Commodity Code` <chr>, Commodity <chr>, `Qty Unit
## #   Code` <int>, `Qty Unit` <chr>, Qty <chr>, `Alt Qty Unit Code` <chr>,
## #   `Alt Qty Unit` <dbl>, `Alt Qty` <chr>, `Netweight (kg)` <dbl>, `Gross
…
