R for Data Analysis and Visualization
…
Hawaii Population Records

The data dictionary

The specific file we are working with is the person record, so not every variable in the data dictionary will be available. Only those under the heading â€œPERSON RECORDâ€ will be in the csv_phi.zip file.

2.2 read_csv

To read in the downloaded file, weâ€™ll use the readr package, which you can install by installing tidyverse.

library(tidyverse)
pop_hi <- read_csv("data/csv_phi.zip")
pop_hi

## # A tibble: 14,124 x 284
##       RT SERIALNO SPORDER  PUMA    ST  ADJINC PWGTP  AGEP   CIT CITWP
##    <chr>    <int>   <chr> <chr> <int>   <int> <chr> <chr> <int> <int>
##  1     P       21      01 00303    15 1001264 00078    63     1    NA
##  2     P      158      01 00306    15 1001264 00056    54     1    NA
##  3     P      267      01 00100    15 1001264 00059    52     5    NA
##  4     P      267      02 00100    15 1001264 00071    56     5    NA
##  5     P      267      03 00100    15 1001264 00102    25     5    NA
##  6     P      267      04 00100    15 1001264 00155    22     5    NA
##  7     P      267      05 00100    15 1001264 00074    15     5    NA
##  8     P      351      01 00100    15 1001264 00307    32     4  2005
##  9     P      351      02 00100    15 1001264 00578    02     1    NA
## 10     P      470      01 00200    15 1001264 00041    79     1    NA
## # ... with 14,114 more rows, and 274 more variables: COW <int>,
## #   DDRS <int>, DEAR <int>, DEYE <int>, DOUT <int>, DPHY <int>,
## #   DRAT <int>, DRATX <int>, DREM <int>, ENG <int>, FER <int>, GCL <int>,
## #   GCM <int>, GCR <int>, HINS1 <int>, HINS2 <int>, HINS3 <int>,
## #   HINS4 <int>, HINS5 <int>, HINS6 <int>, HINS7 <int>, INTP <chr>,
## #   JWMNP <chr>, JWRIP <chr>, JWTR <chr>, LANX <int>, MAR <int>,
## #   MARHD <int>, MARHM <int>, MARHT <int>, MARHW <int>, MARHYP <int>,
## #   MIG <int>, MIL <int>, MLPA <int>, MLPB <int>, MLPCD <int>, MLPE <int>,
## #   MLPFG <int>, MLPH <int>, MLPI <int>, MLPJ <int>, MLPK <int>,
…
