R for Data Analysis and Visualization
…
10.1.2 Reshaping data with tidyr

Since this data set uses a separate column for each time period, the data is not yet tidy. Let’s fix that. We’ll use the gather() function from the tidyr package (http://tidyr.tidyverse.org/reference/gather.html) to identify the name for the new column that stores the old column names (month), the name for the new column that stores the values in the columns being reshaped (age), and a column selector to identify which columns to reshape (matches() takes a regular expression, see the regex documentation). Lastly, we need to mutate() the month using ymd() from the lubridate package. Into ymd(), we place the original date character (in “YYYY-MM” format) and add a piece for the day (using the “-DD” format), so that each of our month time markers are interpreted as the first day of the corresponding month.

library(lubridate)
if("package:dplyr" %in% search()) detach("package:dplyr", unload=TRUE)
library(dplyr)
library(tidyr)
inventory <- raw_inventory %>% select(RegionName, matches("[[:digit:]]")) %>%
  gather(month, age, matches("[[:digit:]]")) %>% 
  mutate(month = ymd(paste0(month, "-01")))
inventory

## # A tibble: 22,713 x 3
##                   RegionName      month   age
##                        <chr>     <date> <int>
##  1             United States 2012-01-01   120
##  2              New York, NY 2012-01-01   136
##  3               Chicago, IL 2012-01-01   141
##  4     Dallas-Fort Worth, TX 2012-01-01   109
##  5          Philadelphia, PA 2012-01-01   132
##  6               Houston, TX 2012-01-01   112
##  7            Washington, DC 2012-01-01   105
##  8 Miami-Fort Lauderdale, FL 2012-01-01    89
##  9               Atlanta, GA 2012-01-01    98
## 10                Boston, MA 2012-01-01   116
## # ... with 22,703 more rows
…
